…
Without that random seed, the random drawing of variables, especially with such a small number of default observations, tends to vary a bit across the recovered parameters. Let’s crank this up a bit.

We’ll use the purrr’s rerun function here.

sim <- rerun(.n = 2000, two_group_data_sim_ols())

Now, to recover the parameters across the 2000 models we estimated, we’ll use

sim_df <- sim %>% 
  map_df(tidy)

sim_df

## # A tibble: 4,000 x 5
##    term        estimate std.error statistic       p.value
##    <chr>          <dbl>     <dbl>     <dbl>         <dbl>
##  1 (Intercept)     4.74     0.449     10.6  0.00000000378
##  2 groupgroup2    -1.11     0.634     -1.76 0.0962       
##  3 (Intercept)     5.01     0.867      5.78 0.0000176    
##  4 groupgroup2    -2.10     1.23      -1.71 0.104        
##  5 (Intercept)     5.39     0.700      7.70 0.000000419  
##  6 groupgroup2    -3.21     0.990     -3.24 0.00457      
##  7 (Intercept)     5.16     0.738      6.99 0.00000159   
##  8 groupgroup2    -2.56     1.04      -2.46 0.0244       
##  9 (Intercept)     4.91     0.556      8.83 0.0000000583 
## 10 groupgroup2    -1.86     0.786     -2.36 0.0297       
## # … with 3,990 more rows
…
